{
  "type": "FeatureCollection",
  "features": [
    {
      "type": "Feature",
      "geometry": {
        "type": "Point",
        "coordinates": [
          -83.517296,
          35.706464
        ]
      },
      "properties": {
        "contact:website": "https://www.ihg.com/holidayinnclubvacations/hotels/us/en/gatlinburg/glbcv/hoteldetail",
        "name": "Holiday Inn Club Vacations Smoky Mountain Resort",
        "contact:phone": "+1 865 9081700",
        "contact:email": "OLGatlinburg@orangelake.com",
        "addr:streetAddress": "404 Historic Nature Trail",
        "addr:addressLocality": "Gatlinburg",
        "addr:addressRegion": "Tennessee",
        "addr:postcode": "37738",
        "addr:country": "US",
        "tourism": "hotel",
        "brand": "Holiday Inn Club Vacations",
        "brand:wikidata": "Q111485843"
      }
    },
    {
      "type": "Feature",
      "geometry": {
        "type": "Point",
        "coordinates": [
          -119.8838791,
          38.9608964
        ]
      },
      "properties": {
        "contact:website": "https://www.ihg.com/holidayinnclubvacations/hotels/us/en/stateline/tvlrt/hoteldetail",
        "name": "Holiday Inn Club Vacations Tahoe Ridge Resort",
        "contact:phone": "+1 775 5883553",
        "contact:email": "reservation@holidayinnclub.com",
        "addr:streetAddress": "400 Ridge Club Drive",
        "addr:addressLocality": "Stateline",
        "addr:addressRegion": "Nevada",
        "addr:postcode": "89449",
        "addr:country": "US",
        "tourism": "hotel",
        "brand": "Holiday Inn Club Vacations",
        "brand:wikidata": "Q111485843"
      }
    },
    {
      "type": "Feature",
      "geometry": {
        "type": "Point",
        "coordinates": [
          -80.596347,
          28.404517
        ]
      },
      "properties": {
        "contact:website": "https://www.ihg.com/holidayinnclubvacations/hotels/us/en/cape-canaveral/ccvcv/hoteldetail",
        "name": "Holiday Inn Club Vacations Cape Canaveral Beach Resort",
        "contact:phone": "+1 321 7994900",
        "contact:email": "OLCapeCanaveral@holidayinnclub.com",
        "addr:streetAddress": "1000 Shorewood Drive",
        "addr:addressLocality": "Cape Canaveral",
        "addr:addressRegion": "Florida",
        "addr:postcode": "32920",
        "addr:country": "US",
        "tourism": "hotel",
        "brand": "Holiday Inn Club Vacations",
        "brand:wikidata": "Q111485843"
      }
    },
    {
      "type": "Feature",
      "geometry": {
        "type": "Point",
        "coordinates": [
          -83.5238681,
          34.639921
        ]
      },
      "properties": {
        "contact:website": "https://www.ihg.com/holidayinnclubvacations/hotels/us/en/clarkesville/toccv/hoteldetail",
        "name": "Holiday Inn Club Vacations Apple MTN Resort Clarkesville",
        "contact:phone": "+1 706 8391050",
        "contact:email": "reservation@holidayinnclub.com",
        "addr:streetAddress": "200 Apple Seed Court",
        "addr:addressLocality": "Clarkesville",
        "addr:addressRegion": "Georgia",
        "addr:postcode": "30523",
        "addr:country": "US",
        "tourism": "hotel",
        "brand": "Holiday Inn Club Vacations",
        "brand:wikidata": "Q111485843"
      }
    },
    {
      "type": "Feature",
      "geometry": {
        "type": "Point",
        "coordinates": [
          -98.20991,
          29.90906
        ]
      },
      "properties": {
        "contact:website": "https://www.ihg.com/holidayinnclubvacations/hotels/us/en/canyon-lake/satcv/hoteldetail",
        "name": "Holiday Inn Club Vacations Hill Country Resort Canyon LK",
        "contact:phone": "+1 830 9354355",
        "contact:email": "reservation@holidayinnclub.com",
        "addr:streetAddress": "17545 FM 306",
        "addr:addressLocality": "Canyon Lake",
        "addr:addressRegion": "Texas",
        "addr:postcode": "78133",
        "addr:country": "US",
        "tourism": "hotel",
        "brand": "Holiday Inn Club Vacations",
        "brand:wikidata": "Q111485843"
      }
    },
    {
      "type": "Feature",
      "geometry": {
        "type": "Point",
        "coordinates": [
          -73.27324999999999,
          42.2739002
        ]
      },
      "properties": {
        "contact:website": "https://www.ihg.com/holidayinnclubvacations/hotels/us/en/south-lee/psfcv/hoteldetail",
        "name": "Holiday Inn Club Vacations Oak n Spruce Resort Berkshires",
        "contact:phone": "+1 413 2433500",
        "contact:email": "reservation@holidayinnclub.com",
        "addr:streetAddress": "190 Meadow Street",
        "addr:addressLocality": "South Lee",
        "addr:addressRegion": "Massachusetts",
        "addr:postcode": "01260",
        "addr:country": "US",
        "tourism": "hotel",
        "brand": "Holiday Inn Club Vacations",
        "brand:wikidata": "Q111485843"
      }
    },
    {
      "type": "Feature",
      "geometry": {
        "type": "Point",
        "coordinates": [
          -95.4526322,
          32.21655680000001
        ]
      },
      "properties": {
        "contact:website": "https://www.ihg.com/holidayinnclubvacations/hotels/us/en/flint/tyrcv/hoteldetail",
        "name": "Holiday Inn Club Vacations Villages Resort Lake Palestine",
        "contact:phone": "+1 903 5611153",
        "contact:email": "reservation@holidayinnclub.com",
        "addr:streetAddress": "18270 Singing Wood Lane",
        "addr:addressLocality": "Flint",
        "addr:addressRegion": "Texas",
        "addr:postcode": "75762",
        "addr:country": "US",
        "tourism": "hotel",
        "brand": "Holiday Inn Club Vacations",
        "brand:wikidata": "Q111485843"
      }
    },
    {
      "type": "Feature",
      "geometry": {
        "type": "Point",
        "coordinates": [
          -88.40429,
          42.611649
        ]
      },
      "properties": {
        "contact:website": "https://www.ihg.com/holidayinnclubvacations/hotels/us/en/lake-geneva/lkgcv/hoteldetail",
        "name": "Holiday Inn Club Vacations At Lake Geneva Resort",
        "contact:phone": "+1 262 2488811",
        "contact:email": "ollakege@holidayinnclub.com",
        "addr:streetAddress": "7036 Grand Geneva Way",
        "addr:addressLocality": "Lake Geneva",
        "addr:addressRegion": "Wisconsin",
        "addr:postcode": "53147",
        "addr:country": "US",
        "tourism": "hotel",
        "brand": "Holiday Inn Club Vacations",
        "brand:wikidata": "Q111485843"
      }
    },
    {
      "type": "Feature",
      "geometry": {
        "type": "Point",
        "coordinates": [
          -78.917818,
          33.659791
        ]
      },
      "properties": {
        "contact:website": "https://www.ihg.com/holidayinnclubvacations/hotels/us/en/myrtle-beach/myrcv/hoteldetail",
        "name": "Holiday Inn Club Vacations South Beach Resort",
        "contact:phone": "+1 843 9135392",
        "contact:email": "olmyrtlebeach@holidayinnclub.com",
        "addr:streetAddress": "3020 Owners Club Court",
        "addr:addressLocality": "Myrtle Beach",
        "addr:addressRegion": "South Carolina",
        "addr:postcode": "29577",
        "addr:country": "US",
        "tourism": "hotel",
        "brand": "Holiday Inn Club Vacations",
        "brand:wikidata": "Q111485843"
      }
    },
    {
      "type": "Feature",
      "geometry": {
        "type": "Point",
        "coordinates": [
          -81.673468,
          28.340562
        ]
      },
      "properties": {
        "contact:website": "https://www.ihg.com/holidayinnclubvacations/hotels/us/en/davenport/mcocv/hoteldetail",
        "name": "Holiday Inn Club Vacations Orlando Breeze Resort",
        "contact:phone": "+1 863 4203838",
        "contact:email": "reservation@holidayinnclub.com",
        "addr:streetAddress": "100 Orlando Breeze Circle",
        "addr:addressLocality": "Davenport",
        "addr:addressRegion": "Florida",
        "addr:postcode": "33897",
        "addr:country": "US",
        "tourism": "hotel",
        "brand": "Holiday Inn Club Vacations",
        "brand:wikidata": "Q111485843"
      }
    },
    {
      "type": "Feature",
      "geometry": {
        "type": "Point",
        "coordinates": [
          -85.887862,
          30.221232
        ]
      },
      "properties": {
        "contact:website": "https://www.ihg.com/holidayinnclubvacations/hotels/us/en/panama-city-beach/ecpcv/hoteldetail",
        "name": "Holiday Inn Club Vacations Panama City Beach Resort",
        "contact:phone": "+1 850 2338830",
        "contact:email": "reservation@holidayinnclub.com",
        "addr:streetAddress": "17001 Front Beach Road",
        "addr:addressLocality": "Panama City Beach",
        "addr:addressRegion": "Florida",
        "addr:postcode": "32413",
        "addr:country": "US",
        "tourism": "hotel",
        "brand": "Holiday Inn Club Vacations",
        "brand:wikidata": "Q111485843"
      }
    },
    {
      "type": "Feature",
      "geometry": {
        "type": "Point",
        "coordinates": [
          -90.4817715,
          38.0781099
        ]
      },
      "properties": {
        "contact:website": "https://www.ihg.com/holidayinnclubvacations/hotels/us/en/desoto/dstcv/hoteldetail",
        "name": "Holiday Inn Club Vacations Timber Creek Resort at De Soto",
        "contact:phone": "+1 636 5867448",
        "contact:email": "reservation@holidayinnclub.com",
        "addr:streetAddress": "4800 US Highway 67",
        "addr:addressLocality": "Desoto",
        "addr:addressRegion": "Missouri",
        "addr:postcode": "63020",
        "addr:country": "US",
        "tourism": "hotel",
        "brand": "Holiday Inn Club Vacations",
        "brand:wikidata": "Q111485843"
      }
    },
    {
      "type": "Feature",
      "geometry": {
        "type": "Point",
        "coordinates": [
          -95.54419,
          30.3808799
        ]
      },
      "properties": {
        "contact:website": "https://www.ihg.com/holidayinnclubvacations/hotels/us/en/conroe/cxocv/hoteldetail",
        "name": "Holiday Inn Club Vacations Piney Shores Resort LK Conroe",
        "contact:phone": "+1 936 8564692",
        "contact:email": "reservation@holidayinnclub.com",
        "addr:streetAddress": "8350 Piney Shores Drive",
        "addr:addressLocality": "Conroe",
        "addr:addressRegion": "Texas",
        "addr:postcode": "77304",
        "addr:country": "US",
        "tourism": "hotel",
        "brand": "Holiday Inn Club Vacations",
        "brand:wikidata": "Q111485843"
      }
    },
    {
      "type": "Feature",
      "geometry": {
        "type": "Point",
        "coordinates": [
          -115.163979,
          36.11815
        ]
      },
      "properties": {
        "contact:website": "https://www.ihg.com/holidayinnclubvacations/hotels/us/en/las-vegas/lascv/hoteldetail",
        "name": "Holiday Inn Club Vacations At Desert Club Resort",
        "contact:phone": "+1 702 7316100",
        "contact:email": "reservation@holidayinnclub.com",
        "addr:streetAddress": "3950 Koval Lane",
        "addr:addressLocality": "Las Vegas",
        "addr:addressRegion": "Nevada",
        "addr:postcode": "89109",
        "addr:country": "US",
        "tourism": "hotel",
        "brand": "Holiday Inn Club Vacations",
        "brand:wikidata": "Q111485843"
      }
    },
    {
      "type": "Feature",
      "geometry": {
        "type": "Point",
        "coordinates": [
          -94.89777,
          29.22741
        ]
      },
      "properties": {
        "contact:website": "https://www.ihg.com/holidayinnclubvacations/hotels/us/en/galveston/glscv/hoteldetail",
        "name": "Holiday Inn Club Vacations Galveston Beach Resort",
        "contact:phone": "+1 409 7372339",
        "contact:email": "reservation@holidayinnclub.com",
        "addr:streetAddress": "11743 Termini-San Luis Pass Road",
        "addr:addressLocality": "Galveston",
        "addr:addressRegion": "Texas",
        "addr:postcode": "77554",
        "addr:country": "US",
        "tourism": "hotel",
        "brand": "Holiday Inn Club Vacations",
        "brand:wikidata": "Q111485843"
      }
    },
    {
      "type": "Feature",
      "geometry": {
        "type": "Point",
        "coordinates": [
          -95.0128,
          29.16301
        ]
      },
      "properties": {
        "contact:website": "https://www.ihg.com/holidayinnclubvacations/hotels/us/en/galveston/glssc/hoteldetail",
        "name": "Holiday Inn Club Vacations Galveston Seaside Resort",
        "contact:phone": "+1 409 7373399",
        "contact:email": "reservation@holidayinnclub.com",
        "addr:streetAddress": "19320 West San Luis Pass",
        "addr:addressLocality": "Galveston",
        "addr:addressRegion": "Texas",
        "addr:postcode": "77554",
        "addr:country": "US",
        "tourism": "hotel",
        "brand": "Holiday Inn Club Vacations",
        "brand:wikidata": "Q111485843"
      }
    },
    {
      "type": "Feature",
      "geometry": {
        "type": "Point",
        "coordinates": [
          -81.72724,
          25.95136
        ]
      },
      "properties": {
        "contact:website": "https://www.ihg.com/holidayinnclubvacations/hotels/us/en/marco-island/apfcv/hoteldetail",
        "name": "Holiday Inn Club Vacations Sunset Cove Resort",
        "contact:phone": "+1 239 3933460",
        "contact:email": "OLMarcoIsland@holidayinnclub.com",
        "addr:streetAddress": "571 West Elkcam Circle",
        "addr:addressLocality": "Marco Island",
        "addr:addressRegion": "Florida",
        "addr:postcode": "34145",
        "addr:country": "US",
        "tourism": "hotel",
        "brand": "Holiday Inn Club Vacations",
        "brand:wikidata": "Q111485843"
      }
    },
    {
      "type": "Feature",
      "geometry": {
        "type": "Point",
        "coordinates": [
          -93.1837791,
          36.6349098
        ]
      },
      "properties": {
        "contact:website": "https://www.ihg.com/holidayinnclubvacations/hotels/us/en/branson/bkgcv/hoteldetail",
        "name": "Holiday Inn Club Vacations Holiday Hills Resort Branson",
        "contact:phone": "+1 417 3344443",
        "contact:email": "reservation@holidayinnclub.com",
        "addr:streetAddress": "2380 East Highway 76",
        "addr:addressLocality": "Branson",
        "addr:addressRegion": "Missouri",
        "addr:postcode": "65616",
        "addr:country": "US",
        "tourism": "hotel",
        "brand": "Holiday Inn Club Vacations",
        "brand:wikidata": "Q111485843"
      }
    },
    {
      "type": "Feature",
      "geometry": {
        "type": "Point",
        "coordinates": [
          -72.470531,
          43.46644
        ]
      },
      "properties": {
        "contact:website": "https://www.ihg.com/holidayinnclubvacations/hotels/us/en/brownsville/avtcv/hoteldetail",
        "name": "Holiday Inn Club Vacations Mount Ascutney Resort",
        "contact:phone": "+1 802 4847711",
        "contact:email": "OLAscutn@orangelake.com",
        "addr:streetAddress": "485 Hotel Road",
        "addr:addressLocality": "Brownsville",
        "addr:addressRegion": "Vermont",
        "addr:postcode": "05037",
        "addr:country": "US",
        "tourism": "hotel",
        "brand": "Holiday Inn Club Vacations",
        "brand:wikidata": "Q111485843"
      }
    },
    {
      "type": "Feature",
      "geometry": {
        "type": "Point",
        "coordinates": [
          -119.8334481,
          38.9821004
        ]
      },
      "properties": {
        "contact:website": "https://www.ihg.com/holidayinnclubvacations/hotels/us/en/genoa/csndw/hoteldetail",
        "name": "Holiday Inn Club Vacations David Walley's Resort",
        "contact:phone": "+1 775 7828155",
        "contact:email": "reservation@holidayinnclub.com",
        "addr:streetAddress": "2001 Foothill Road",
        "addr:addressLocality": "Genoa",
        "addr:addressRegion": "Nevada",
        "addr:postcode": "89411",
        "addr:country": "US",
        "tourism": "hotel",
        "brand": "Holiday Inn Club Vacations",
        "brand:wikidata": "Q111485843"
      }
    },
    {
      "type": "Feature",
      "geometry": {
        "type": "Point",
        "coordinates": [
          -81.62535,
          28.354093
        ]
      },
      "properties": {
        "contact:website": "https://www.ihg.com/holidayinnclubvacations/hotels/us/en/kissimmee/discv/hoteldetail",
        "name": "Holiday Inn Club Vacations At Orange Lake Resort",
        "contact:phone": "+1 407 4777025",
        "contact:email": "reservation@holidayinnclub.com",
        "addr:streetAddress": "8505 W. Irlo Bronson Memorial",
        "addr:addressLocality": "Kissimmee",
        "addr:addressRegion": "Florida",
        "addr:postcode": "34747",
        "addr:country": "US",
        "tourism": "hotel",
        "brand": "Holiday Inn Club Vacations",
        "brand:wikidata": "Q111485843"
      }
    },
    {
      "type": "Feature",
      "geometry": {
        "type": "Point",
        "coordinates": [
          -111.915942,
          33.647863
        ]
      },
      "properties": {
        "contact:website": "https://www.ihg.com/holidayinnclubvacations/hotels/us/en/scottsdale/phxcv/hoteldetail",
        "name": "Holiday Inn Club Vacations Scottsdale Resort",
        "contact:phone": "+1 480 2489001",
        "contact:email": "reservation@holidayinnclub.com",
        "addr:streetAddress": "7677 East Princess Boulevard",
        "addr:addressLocality": "Scottsdale",
        "addr:addressRegion": "Arizona",
        "addr:postcode": "85255",
        "addr:country": "US",
        "tourism": "hotel",
        "brand": "Holiday Inn Club Vacations",
        "brand:wikidata": "Q111485843"
      }
    },
    {
      "type": "Feature",
      "geometry": {
        "type": "Point",
        "coordinates": [
          -88.6844388,
          41.4669785
        ]
      },
      "properties": {
        "contact:website": "https://www.ihg.com/holidayinnclubvacations/hotels/us/en/sheridan/jotcv/hoteldetail",
        "name": "Holiday Inn Club Vacations Fox River Resort at Sheridan",
        "contact:phone": "+1 815 4962369",
        "contact:email": "reservation@holidayinnclub.com",
        "addr:streetAddress": "2558 N 3653rd Rd",
        "addr:addressLocality": "Sheridan",
        "addr:addressRegion": "Illinois",
        "addr:postcode": "60551",
        "addr:country": "US",
        "tourism": "hotel",
        "brand": "Holiday Inn Club Vacations",
        "brand:wikidata": "Q111485843"
      }
    },
    {
      "type": "Feature",
      "geometry": {
        "type": "Point",
        "coordinates": [
          -76.73899,
          37.350441
        ]
      },
      "properties": {
        "contact:website": "https://www.ihg.com/holidayinnclubvacations/hotels/us/en/williamsburg/wbgcv/hoteldetail",
        "name": "Holiday Inn Club Vacations Williamsburg Resort",
        "contact:phone": "+1 757 9411540",
        "contact:email": "reservation@holidayinnclub.com",
        "addr:streetAddress": "200 English Garden Way",
        "addr:addressLocality": "Williamsburg",
        "addr:addressRegion": "Virginia",
        "addr:postcode": "23188",
        "addr:country": "US",
        "tourism": "hotel",
        "brand": "Holiday Inn Club Vacations",
        "brand:wikidata": "Q111485843"
      }
    },
    {
      "type": "Feature",
      "geometry": {
        "type": "Point",
        "coordinates": [
          -90.0712303,
          29.9525768
        ]
      },
      "properties": {
        "contact:website": "https://www.ihg.com/holidayinnclubvacations/hotels/us/en/new-orleans/msybv/hoteldetail",
        "name": "Holiday Inn Club Vacations New Orleans Resort",
        "contact:phone": "+1 504 3551199",
        "contact:email": "reservation@holidayinnclub.com",
        "addr:streetAddress": "203 Carondelet Street",
        "addr:addressLocality": "New Orleans",
        "addr:addressRegion": "Louisiana",
        "addr:postcode": "70130",
        "addr:country": "US",
        "tourism": "hotel",
        "brand": "Holiday Inn Club Vacations",
        "brand:wikidata": "Q111485843"
      }
    }
  ]
}