{
  "type": "FeatureCollection",
  "features": [
    {
      "type": "Feature",
      "geometry": {
        "type": "Point",
        "coordinates": [
          -2.574494,
          51.508958
        ]
      },
      "properties": {
        "opening_hours": "Sa 10:00-18:00; Mo,Tu,We,Th,Fr 10:00-19:00; Su 11:00-17:00",
        "contact:phone": "+44 117 450 9940",
        "contact:website": "https://www.snowandrock.com/stores/bristol-filton.html",
        "name": "Snow and Rock Bristol Filton",
        "image": "https://www.snowandrock.com/content/dam/snowandrock/stores/726.jpg",
        "addr:streetAddress": "Units 1 - 3, Shield Retail Centre, Link Road, Filton",
        "addr:addressLocality": "Bristol",
        "addr:postcode": "BS34 7BR",
        "addr:country": "GB",
        "brand": "Snow and Rock",
        "shop": "outdoor"
      }
    },
    {
      "type": "Feature",
      "geometry": {
        "type": "Point",
        "coordinates": [
          -0.086601,
          51.510599
        ]
      },
      "properties": {
        "opening_hours": "Mo,Tu,We,Th,Fr 09:00-19:00; Sa 10:00-18:00; Su 11:00-17:00",
        "contact:phone": "+44 203 780 2059",
        "contact:website": "https://www.snowandrock.com/stores/london-monument.html",
        "name": "Snow and Rock London Monument",
        "image": "https://www.snowandrock.com/content/dam/snowandrock/stores/736.jpg",
        "addr:streetAddress": "47-51 King William Street",
        "addr:addressLocality": "London",
        "addr:postcode": "EC4R 9AF",
        "addr:country": "GB",
        "brand": "Snow and Rock",
        "shop": "outdoor"
      }
    },
    {
      "type": "Feature",
      "geometry": {
        "type": "Point",
        "coordinates": [
          -3.468222,
          50.714578
        ]
      },
      "properties": {
        "opening_hours": "Sa 10:00-18:00; Mo,Tu,We,Th,Fr 10:00-19:00; Su 11:00-17:00",
        "contact:phone": "+44 1392 307031",
        "contact:website": "https://www.snowandrock.com/stores/exeter.html",
        "name": "Snow and Rock Exeter",
        "image": "https://www.snowandrock.com/content/dam/snowandrock/stores/746.jpg",
        "addr:streetAddress": "Unit 2 Bishops Retail Park, Sidmouth Road",
        "addr:addressLocality": "Exeter",
        "addr:postcode": "EX2 7JH",
        "addr:country": "GB",
        "brand": "Snow and Rock",
        "shop": "outdoor"
      }
    },
    {
      "type": "Feature",
      "geometry": {
        "type": "Point",
        "coordinates": [
          -1.54455,
          53.797888
        ]
      },
      "properties": {
        "opening_hours": "Mo,Tu,We,Th,Fr,Sa 09:00-18:00; Su 11:00-17:00",
        "contact:phone": "+44 1133 224422",
        "contact:website": "https://www.snowandrock.com/stores/leeds.html",
        "name": "Snow and Rock Leeds",
        "image": "https://www.snowandrock.com/content/dam/snowandrock/stores/765.jpg",
        "addr:streetAddress": "8-12 Lands Lane/11 Albion Place",
        "addr:addressLocality": "Leeds",
        "addr:postcode": "LS1 6LD",
        "addr:country": "GB",
        "brand": "Snow and Rock",
        "shop": "outdoor"
      }
    },
    {
      "type": "Feature",
      "geometry": {
        "type": "Point",
        "coordinates": [
          -1.097311,
          50.840382
        ]
      },
      "properties": {
        "opening_hours": "Sa 09:00-18:00; Su 10:00-16:00; Mo,Tu,We,Th,Fr 10:00-19:00",
        "contact:phone": "+44 2394 215667",
        "contact:website": "https://www.snowandrock.com/stores/port-solent.html",
        "name": "Snow and Rock Port Solent",
        "image": "https://www.snowandrock.com/content/dam/snowandrock/stores/731.jpg",
        "addr:streetAddress": "The Boardwalk, Port Solent",
        "addr:addressLocality": "Portsmouth, Hants",
        "addr:postcode": "PO6 4TP",
        "addr:country": "GB",
        "brand": "Snow and Rock",
        "shop": "outdoor"
      }
    },
    {
      "type": "Feature",
      "geometry": {
        "type": "Point",
        "coordinates": [
          -2.361472,
          53.468772
        ]
      },
      "properties": {
        "opening_hours": "Sa 10:00-18:00; Su 11:00-17:00; Mo,Tu,We,Th,Fr 11:00-19:00",
        "contact:phone": "+44 161 413 8887",
        "contact:website": "https://www.snowandrock.com/stores/manchester-chill-factore.html",
        "name": "Snow and Rock Manchester Chill Factore",
        "image": "https://www.snowandrock.com/content/dam/snowandrock/stores/740.jpg",
        "addr:streetAddress": "Unit 6, Trafford Way, Trafford Quays",
        "addr:addressLocality": "Manchester",
        "addr:postcode": "M41 7JA",
        "addr:country": "GB",
        "brand": "Snow and Rock",
        "shop": "outdoor"
      }
    },
    {
      "type": "Feature",
      "geometry": {
        "type": "Point",
        "coordinates": [
          -0.12554783,
          51.512795
        ]
      },
      "properties": {
        "opening_hours": "Su 12:00-18:00; Mo,Tu,We,Th,Fr,Sa 10:00-19:00",
        "contact:phone": "+44 203 815 5740",
        "contact:website": "https://www.snowandrock.com/stores/london-covent-garden-mercer-street.html",
        "name": "Snow and Rock London Covent Garden, Mercer Street",
        "image": "https://www.snowandrock.com/content/dam/snowandrock/stores/729.jpg",
        "addr:streetAddress": "4 Mercer Street, Covent Garden",
        "addr:addressLocality": "London",
        "addr:postcode": "WC2H 9QA",
        "addr:country": "GB",
        "brand": "Snow and Rock",
        "shop": "outdoor"
      }
    },
    {
      "type": "Feature",
      "geometry": {
        "type": "Point",
        "coordinates": [
          -0.45834,
          51.745165
        ]
      },
      "properties": {
        "opening_hours": "Sa 09:00-18:00; Su 10:00-16:00; Mo,Tu,We,Th,Fr 10:00-18:00",
        "contact:phone": "+44 1442 508123",
        "contact:website": "https://www.snowandrock.com/stores/hemel-hempstead.html",
        "name": "Snow and Rock Hemel Hempstead",
        "image": "https://www.snowandrock.com/content/dam/snowandrock/stores/743.jpg",
        "addr:streetAddress": "Hemel Snow Centre",
        "addr:addressLocality": "St Albans Hill, Hertfordshire",
        "addr:postcode": "HP3 9NH",
        "addr:country": "GB",
        "brand": "Snow and Rock",
        "shop": "outdoor"
      }
    },
    {
      "type": "Feature",
      "geometry": {
        "type": "Point",
        "coordinates": [
          -0.163588,
          51.49958
        ]
      },
      "properties": {
        "opening_hours": "Fr,Sa 11:00-20:00; Su 11:30-18:00; Mo,Tu,We,Th 11:00-19:00",
        "contact:phone": "+44 207 173 6476",
        "contact:website": "https://www.snowandrock.com/stores/london-harrods.html",
        "name": "Snow and Rock London Harrods",
        "image": "https://www.snowandrock.com/content/dam/snowandrock/stores/744.jpg",
        "addr:streetAddress": "2nd Floor, Harrods, 87 - 135 Brompton Road, Knightsbridge",
        "addr:addressLocality": "London",
        "addr:postcode": "SW1X 7XL",
        "addr:country": "GB",
        "brand": "Snow and Rock",
        "shop": "outdoor"
      }
    },
    {
      "type": "Feature",
      "geometry": {
        "type": "Point",
        "coordinates": [
          -0.494045,
          51.385532
        ]
      },
      "properties": {
        "opening_hours": "Sa 09:00-18:00; Mo,Tu,We,Th,Fr 10:00-19:00; Su 11:00-17:00",
        "contact:phone": "+44 1932 566886",
        "contact:website": "https://www.snowandrock.com/stores/chertsey.html",
        "name": "Snow and Rock Chertsey",
        "image": "https://www.snowandrock.com/content/dam/snowandrock/stores/724.jpg",
        "addr:streetAddress": "99 Fordwater Road",
        "addr:addressLocality": "Chertsey, Surrey",
        "addr:postcode": "KT16 8HH",
        "addr:country": "GB",
        "brand": "Snow and Rock",
        "shop": "outdoor"
      }
    },
    {
      "type": "Feature",
      "geometry": {
        "type": "Point",
        "coordinates": [
          0.271016,
          51.438891
        ]
      },
      "properties": {
        "opening_hours": "Sa 09:00-19:00; Mo,Tu,We,Th,Fr 10:00-19:00; Su 11:00-17:00",
        "contact:phone": "+44 1322 875899",
        "contact:website": "https://www.snowandrock.com/stores/bluewater.html",
        "name": "Snow and Rock Bluewater",
        "image": "https://www.snowandrock.com/content/dam/snowandrock/stores/767.jpg",
        "addr:streetAddress": "Bluewater Shopping Centre, Upper Rose Gallery",
        "addr:addressLocality": "Dartford",
        "addr:postcode": "DA9 9ST",
        "addr:country": "GB",
        "brand": "Snow and Rock",
        "shop": "outdoor"
      }
    }
  ]
}